[
  {
   "mac":["0x30","0xC6","0xF7","0x25","0xAE","0x2C"],
   "role":1 
  },
  {
   "mac":["0xAC","0x67","0xB2","0x38","0x88","0xC0"],
   "role":2
  },
  {
   "mac":["0xAC","0x67","0xB2","0x34","0xA1","0xFC"],
   "role":3
  },
  {
   "mac":["0x24","0x62","0xAB","0xCA","0x70","0xF4"],
   "role":1
  }
]

